# Blender v2.79 (sub 0) OBJ File: ''
# www.blender.org
mtllib cross.mtl
o Cube.003_Cube.007
v 0.500000 0.912096 -1.000000
v 0.500000 0.912096 1.000000
v -0.500000 0.912096 1.000000
v -0.500000 0.912096 -1.000000
v 0.100000 3.412097 -1.500000
v 0.100000 3.412097 1.500001
v -0.100000 3.412097 1.500000
v -0.100000 3.412097 -1.500000
v 0.500000 0.912096 1.000000
v 0.500000 -1.087904 1.000000
v -0.500000 -1.087903 1.000000
v -0.500000 0.912097 1.000000
v 0.100000 1.412096 3.000000
v 0.100000 -1.587904 3.000000
v -0.100000 -1.587903 3.000000
v -0.100000 1.412096 3.000000
v 0.500000 -1.087903 -1.000000
v 0.500000 0.912096 -1.000000
v -0.500000 0.912096 -1.000000
v -0.500000 -1.087904 -1.000000
v 0.100000 -1.587903 -3.000000
v 0.100000 1.412097 -3.000000
v -0.100000 1.412096 -3.000000
v -0.100000 -1.587904 -3.000000
v 0.500000 -1.087904 -1.000000
v 0.500000 -1.087904 1.000000
v -0.500000 -1.087904 1.000000
v -0.500000 -1.087904 -1.000000
v 0.500000 0.912096 -0.999999
v 0.500000 0.912096 1.000001
v -0.500000 0.912096 1.000000
v -0.500000 0.912096 -1.000000
v 0.500000 -1.087904 1.000000
v 0.500000 -1.087903 -1.000000
v -0.500000 -1.087903 -1.000000
v -0.500000 -1.087904 1.000001
v 0.100000 -4.587903 1.499999
v 0.100000 -4.587903 -1.500001
v -0.100000 -4.587903 -1.500000
v -0.100000 -4.587903 1.500000
vn 0.0000 -1.0000 -0.0000
vn 0.0000 1.0000 0.0000
vn 0.9874 0.1580 0.0000
vn -0.0000 -0.1961 0.9806
vn -0.9874 0.1580 -0.0000
vn 0.0000 -0.1961 -0.9806
vn 0.0000 0.0000 -1.0000
vn -0.0000 0.0000 1.0000
vn 0.9806 -0.0000 0.1961
vn -0.0000 -0.9701 -0.2425
vn -0.9806 0.0000 0.1961
vn 0.0000 0.9701 -0.2425
vn 0.9806 0.0000 -0.1961
vn -0.0000 0.9701 0.2425
vn -0.9806 -0.0000 -0.1961
vn 0.0000 -0.9701 0.2425
vn 1.0000 0.0000 0.0000
vn -1.0000 -0.0000 -0.0000
vn 0.9935 -0.1135 -0.0000
vn -0.0000 0.1414 -0.9899
vn -0.9935 -0.1135 0.0000
vn 0.0000 0.1414 0.9899
usemtl Material
s off
f 1//1 2//1 3//1 4//1
f 5//2 8//2 7//2 6//2
f 1//3 5//3 6//3 2//3
f 2//4 6//4 7//4 3//4
f 3//5 7//5 8//5 4//5
f 5//6 1//6 4//6 8//6
f 9//7 10//7 11//7 12//7
f 13//8 16//8 15//8 14//8
f 9//9 13//9 14//9 10//9
f 10//10 14//10 15//10 11//10
f 11//11 15//11 16//11 12//11
f 13//12 9//12 12//12 16//12
f 17//8 18//8 19//8 20//8
f 21//7 24//7 23//7 22//7
f 17//13 21//13 22//13 18//13
f 18//14 22//14 23//14 19//14
f 19//15 23//15 24//15 20//15
f 21//16 17//16 20//16 24//16
f 25//1 26//1 27//1 28//1
f 29//2 32//2 31//2 30//2
f 25//17 29//17 30//17 26//17
f 26//8 30//8 31//8 27//8
f 27//18 31//18 32//18 28//18
f 29//7 25//7 28//7 32//7
f 33//2 34//2 35//2 36//2
f 37//1 40//1 39//1 38//1
f 33//19 37//19 38//19 34//19
f 34//20 38//20 39//20 35//20
f 35//21 39//21 40//21 36//21
f 37//22 33//22 36//22 40//22
